Variable selection and model performance
…
---
# Interaction worth it?
### Move back to long

```r
metrics <- metrics_joined %>% 
  pivot_longer(cols = contains("_"),
               names_to = c("metric", "model"),
               values_to = "estimate",
               names_sep = "_")
metrics
```

```
## # A tibble: 40 x 5
##    id     .estimator metric model     estimate
##    <chr>  <chr>      <chr>  <chr>        <dbl>
##  1 Fold01 standard   rmse   m1    109.6783    
##  2 Fold01 standard   rsq    m1      0.09307510
##  3 Fold01 standard   rmse   m2    109.6598    
##  4 Fold01 standard   rsq    m2      0.09338219
##  5 Fold02 standard   rmse   m1    110.2558    
##  6 Fold02 standard   rsq    m1      0.09416731
##  7 Fold02 standard   rmse   m2    110.2317    
##  8 Fold02 standard   rsq    m2      0.09456479
##  9 Fold03 standard   rmse   m1    109.9944    
## 10 Fold03 standard   rsq    m1      0.09448588
## # … with 30 more rows
```
…
--

This basically tells us that outside of sped (which we've included already) gifted/talented (tag), economic disadvantage, test date, and ethnic code are important predictors. Let's look a bit deeper.

---

```r
vip_1b <- vi(lm(score ~ ., train))
vip_1b
```

```
## # A tibble: 48 x 3
##    Variable     Importance Sign 
##    <chr>             <dbl> <chr>
##  1 tag_ed_fgY    117.4957  POS  
##  2 sp_ed_fgY     109.1892  NEG  
##  3 econ_dsvntgY   77.75669 NEG  
##  4 ethnic_cdB     44.59635 NEG  
##  5 ethnic_cdH     39.03411 NEG  
##  6 tst_dt         34.35133 POS  
##  7 ethnic_cdW     26.76342 NEG  
##  8 ethnic_cdM     23.95652 NEG  
##  9 ethnic_cdI     22.80560 NEG  
## 10 ethnic_cdP     21.52754 NEG  
## # … with 38 more rows
```
…
---
# Evaluation on test set
* Note we wouldn't usually jump to this point yet, but let's try.

--
### First: Extract test dataset

```r
test <- testing(splt)
test
```

```
## # A tibble: 46,400 x 35
##       id gndr  ethnic_cd attnd_dist_inst_id attnd_schl_inst_id enrl_grd tst_bnch
##    <dbl> <fct> <fct>                  <dbl>              <dbl>    <dbl> <fct>   
##  1    24 F     W                       2243               1182        8 3B      
##  2    34 M     H                       1928                115        8 3B      
##  3    43 M     W                       1922               5377        8 3B      
##  4    45 M     H                       1924               3530        7 G7      
##  5    56 F     H                       1970                224        8 3B      
##  6    60 M     H                       1974                235        7 G7      
##  7    64 M     W                       2100               4744        7 G7      
##  8    67 F     W                       2100                638        8 3B      
##  9    71 M     W                       2100                638        7 G7      
## 10    75 F     H                       2100                642        7 G7      
## # … with 46,390 more rows, and 28 more variables: tst_dt <date>,
## #   migrant_ed_fg <fct>, ind_ed_fg <fct>, sp_ed_fg <fct>, tag_ed_fg <fct>,
## #   econ_dsvntg <fct>, ayp_lep <fct>, stay_in_dist <fct>, stay_in_schl <fct>,
## #   dist_sped <fct>, trgt_assist_fg <fct>, ayp_schl_partic <fct>,
## #   ayp_dist_prfrm <fct>, ayp_schl_prfrm <fct>, rc_schl_partic <fct>,
## #   rc_dist_prfrm <fct>, rc_schl_prfrm <fct>, partic_dist_inst_id <dbl>,
## #   partic_schl_inst_id <dbl>, lang_cd <fct>, tst_atmpt_fg <fct>,
## #   grp_rpt_schl_partic <fct>, grp_rpt_dist_prfrm <fct>,
## #   grp_rpt_schl_prfrm <fct>, score <dbl>, ncessch <dbl>, lat <dbl>, lon <dbl>
```
…
---
# Make predictions

```r
preds <- test %>% 
  mutate(estimate = predict(test_mod$fit, newdata = .)) %>% 
  select(truth = score, estimate)
preds
```

```
## # A tibble: 46,400 x 2
##    truth estimate
##    <dbl>    <dbl>
##  1  2574 2545.805
##  2  2355 2422.717
##  3  2366 2455.424
##  4  2490 2460.624
##  5  2261 2373.377
##  6  2453 2456.444
##  7  2291 2402.950
##  8  2492 2493.331
##  9  2417 2492.808
## 10  2522 2509.964
## # … with 46,390 more rows
```
…
