Feature engineering
…
---
# Apply the blueprint
* We're going to go deeper with this, but first, let's look at what this blueprint is doing.

.g[could also use `juice` in this case, but `bake` is more general]

```r
rec %>% 
  prep %>% 
  bake(train)
```

```
## # A tibble: 142,070 x 125
##       id attnd_dist_inst_id attnd_schl_inst_id enrl_grd partic_dist_inst_id
##    <dbl>              <dbl>              <dbl>    <dbl>               <dbl>
##  1     1               2142               1330        6                2142
##  2     3               1995               3400        8                1995
##  3     7               1964                191        8                1964
##  4    10               1948                184        8                1948
##  5    13               1947               4396        8                1947
##  6    14               1965                201        8                1965
##  7    16               1945                168        8                1945
##  8    17               1966                208        8                1966
##  9    18               1965                201        8                1965
## 10    22               1945                168        8                1945
## # … with 142,060 more rows, and 120 more variables: partic_schl_inst_id <dbl>,
## #   ncessch <dbl>, lat <dbl>, lon <dbl>, score <dbl>, gndr_M <dbl>,
## #   ethnic_cd_B <dbl>, ethnic_cd_H <dbl>, ethnic_cd_I <dbl>, ethnic_cd_M <dbl>,
## #   ethnic_cd_P <dbl>, ethnic_cd_W <dbl>, tst_bnch_X2B <dbl>,
## #   tst_bnch_X3B <dbl>, tst_bnch_G4 <dbl>, tst_bnch_G6 <dbl>,
## #   tst_bnch_G7 <dbl>, tst_dt_X2.26.2018.0.00.00 <dbl>,
## #   tst_dt_X2.28.2018.0.00.00 <dbl>, tst_dt_X2.6.2018.0.00.00 <dbl>,
## #   tst_dt_X2.7.2018.0.00.00 <dbl>, tst_dt_X2.8.2018.0.00.00 <dbl>,
## #   tst_dt_X3.13.2018.0.00.00 <dbl>, tst_dt_X3.14.2018.0.00.00 <dbl>,
…
---

```r
rec %>% 
  prep %>% 
  bake(train)
```

```
## # A tibble: 142,070 x 56
##       id attnd_dist_inst_id attnd_schl_inst_id enrl_grd tst_dt             
##    <dbl>              <dbl>              <dbl>    <dbl> <dttm>             
##  1     1               2142               1330        6 2018-05-14 00:00:00
##  2     3               1995               3400        8 2018-05-01 00:00:00
##  3     7               1964                191        8 2018-05-22 00:00:00
##  4    10               1948                184        8 2018-05-25 00:00:00
##  5    13               1947               4396        8 2018-05-09 00:00:00
##  6    14               1965                201        8 2018-05-11 00:00:00
##  7    16               1945                168        8 2018-05-24 00:00:00
##  8    17               1966                208        8 2018-05-10 00:00:00
##  9    18               1965                201        8 2018-05-15 00:00:00
## 10    22               1945                168        8 2018-05-23 00:00:00
## # … with 142,060 more rows, and 51 more variables: partic_dist_inst_id <dbl>,
## #   partic_schl_inst_id <dbl>, ncessch <dbl>, lat <dbl>, lon <dbl>,
## #   score <dbl>, gndr_M <dbl>, ethnic_cd_B <dbl>, ethnic_cd_H <dbl>,
## #   ethnic_cd_I <dbl>, ethnic_cd_M <dbl>, ethnic_cd_P <dbl>, ethnic_cd_W <dbl>,
## #   tst_bnch_X2B <dbl>, tst_bnch_X3B <dbl>, tst_bnch_G4 <dbl>,
## #   tst_bnch_G6 <dbl>, tst_bnch_G7 <dbl>, migrant_ed_fg_Y <dbl>,
## #   ind_ed_fg_y <dbl>, ind_ed_fg_Y <dbl>, sp_ed_fg_Y <dbl>, tag_ed_fg_Y <dbl>,
## #   econ_dsvntg_Y <dbl>, ayp_lep_B <dbl>, ayp_lep_E <dbl>, ayp_lep_F <dbl>,
## #   ayp_lep_M <dbl>, ayp_lep_N <dbl>, ayp_lep_S <dbl>, ayp_lep_W <dbl>,
…
```r
tmpfile <- tempfile()
download.file(
  "https://www.oregon.gov/ode/reports-and-data/students/Documents/fallmembershipreport_20192020.xlsx",
  tmpfile
)
sheets <- readxl::excel_sheets(tmpfile)
ode_schools <- readxl::read_xlsx(tmpfile,
                                 sheet = sheets[4])
ode_schools
```

```
## # A tibble: 1,459 x 33
##    `Attending District Institution ID` `District Name` `Attending School ID`
##                                  <dbl> <chr>                           <dbl>
##  1                                2063 Adel SD 21                        498
##  2                                2113 Adrian SD 61                      707
##  3                                2113 Adrian SD 61                      708
##  4                                1899 Alsea SD 7J                        17
##  5                                2252 Amity SD 4J                      1208
##  6                                2252 Amity SD 4J                      1210
##  7                                2252 Amity SD 4J                      1209
##  8                                2252 Amity SD 4J                      4505
##  9                                2111 Annex SD 29                       705
## 10                                2111 Annex SD 29                      2111
## # … with 1,449 more rows, and 30 more variables: `School Name` <chr>, `2018-19
## #   Total Enrollment` <chr>, `2019-20 Total Enrollment` <chr>, `2019-20
## #   American Indian/Alaska Native` <chr>, `2019-20 % American Indian/Alaska
## #   Native` <dbl>, `2019-20 Asian` <chr>, `2019-20 % Asian` <dbl>, `2019-20
## #   Native Hawaiian/ Pacific Islander` <chr>, `2019-20 % Native Hawaiian/
## #   Pacific Islander` <dbl>, `2019-20 Black/African American` <chr>, `2019-20 %
## #   Black/African American` <dbl>, `2019-20 Hispanic/ Latino` <chr>, `2019-20 %
## #   Hispanic/ Latino` <dbl>, `2019-20 White` <chr>, `2019-20 % White` <dbl>,
## #   `2019-20 Multiracial` <chr>, `2019-20 % Multiracial` <dbl>, `2019-20
…
---
# Pull percentage variables

```r
ethnicities <- ode_schools %>% 
  select(attnd_schl_inst_id = `Attending School ID`,
         sch_name = `School Name`,
         contains("%")) %>% 
  janitor::clean_names()
names(ethnicities) <- gsub("x2019_20_percent", "p", names(ethnicities))
ethnicities
```

```
## # A tibble: 1,459 x 9
##    attnd_schl_inst_id sch_name p_american_indian_alaska_native p_asian
##                 <dbl> <chr>                              <dbl>   <dbl>
##  1                498 Adel El…                     0.28571     0      
##  2                707 Adrian …                     0           0      
##  3                708 Adrian …                     0.01124     0.01124
##  4                 17 Alsea C…                     0.01558     0.05607
##  5               1208 Amity E…                     0.02402     0      
##  6               1210 Amity H…                     0.007940000 0.0119 
##  7               1209 Amity M…                     0.00485     0.01456
##  8               4505 Eola Hi…                     0.0303      0      
##  9                705 Annex C…                     0           0      
## 10               2111 Annex S…                     0           0      
## # … with 1,449 more rows, and 5 more variables:
## #   p_native_hawaiian_pacific_islander <dbl>, p_black_african_american <dbl>,
## #   p_hispanic_latino <dbl>, p_white <dbl>, p_multiracial <dbl>
```
…
```r
rec <- recipe(score ~ ., train) %>% 
  step_unknown(all_nominal())

rec %>% 
  prep() %>% 
  bake(train) %>% 
  select(id, ayp_lep)
```

```
## # A tibble: 142,187 x 2
##       id ayp_lep
##    <dbl> <fct>  
##  1     1 X      
##  2     3 unknown
##  3     7 E      
##  4    10 unknown
##  5    13 unknown
##  6    14 unknown
##  7    16 unknown
##  8    17 unknown
##  9    18 unknown
## 10    22 unknown
## # … with 142,177 more rows
```
…
---
Rows 5/6 have been mean imputed for `Solar.R`

```r
airquality_rec <- recipe(Ozone ~ ., data = airquality) %>% 
  step_meanimpute(all_predictors()) 

airquality_rec %>% 
  prep() %>% 
  bake(airquality)
```

```
## # A tibble: 153 x 6
##    Solar.R  Wind  Temp Month   Day Ozone
##      <int> <dbl> <int> <int> <int> <int>
##  1     190   7.4    67     5     1    41
##  2     118   8      72     5     2    36
##  3     149  12.6    74     5     3    12
##  4     313  11.5    62     5     4    18
##  5     186  14.3    56     5     5    NA
##  6     186  14.9    66     5     6    28
##  7     299   8.6    65     5     7    23
##  8      99  13.8    59     5     8    19
##  9      19  20.1    61     5     9     8
## 10     194   8.6    69     5    10    NA
## # … with 143 more rows
```

---
Now they've been imputed using a `\(k\)` nearest neighbor model

```r
airquality_rec <- recipe(Ozone ~ ., data = airquality) %>% 
* step_knnimpute(all_predictors())

airquality_rec %>% 
  prep() %>% 
  bake(airquality)
```

```
## # A tibble: 153 x 6
##    Solar.R  Wind  Temp Month   Day Ozone
##      <int> <dbl> <int> <int> <int> <int>
##  1     190   7.4    67     5     1    41
##  2     118   8      72     5     2    36
##  3     149  12.6    74     5     3    12
##  4     313  11.5    62     5     4    18
##  5     159  14.3    56     5     5    NA
##  6     220  14.9    66     5     6    28
##  7     299   8.6    65     5     7    23
##  8      99  13.8    59     5     8    19
##  9      19  20.1    61     5     9     8
## 10     194   8.6    69     5    10    NA
## # … with 143 more rows
```

---
And finally with a bagged tree model

```r
airquality_rec <- recipe(Ozone ~ ., data = airquality) %>% 
* step_bagimpute(all_predictors())

airquality_rec %>% 
  prep() %>% 
  bake(airquality)
```

```
## # A tibble: 153 x 6
##    Solar.R  Wind  Temp Month   Day Ozone
##      <int> <dbl> <int> <int> <int> <int>
##  1     190   7.4    67     5     1    41
##  2     118   8      72     5     2    36
##  3     149  12.6    74     5     3    12
##  4     313  11.5    62     5     4    18
##  5     107  14.3    56     5     5    NA
##  6     244  14.9    66     5     6    28
##  7     299   8.6    65     5     7    23
##  8      99  13.8    59     5     8    19
##  9      19  20.1    61     5     9     8
## 10     194   8.6    69     5    10    NA
## # … with 143 more rows
```
…
```r
data(segmentationData, package = "caret")
seg <- segmentationData %>% 
  filter(Case == "Train") %>% 
  select(EqSphereAreaCh1, PerimCh1, Class) %>% 
  setNames(c("PredictorA", "PredictorB", "Class")) %>% 
  mutate(Class = factor(ifelse(Class == "PS", "One", "Two"))) %>% 
  as_tibble()
seg
```

```
## # A tibble: 1,009 x 3
##    PredictorA PredictorB Class
##         <dbl>      <dbl> <fct>
##  1  3278.726   154.8988  One  
##  2  1727.410    84.56460 Two  
##  3  1194.932   101.0911  One  
##  4  1027.222    68.71062 Two  
##  5  1035.608    73.40559 One  
##  6  1433.918    79.47569 One  
##  7   633.1043   67.36563 One  
##  8  1262.016    67.01432 Two  
##  9   985.2948   61.96803 Two  
## 10   893.0544   56.77622 Two  
## # … with 999 more rows
```
…
---
# Fit model & make prediction

```r
fit <- lm(Temp ~ date_ns_1 + date_ns_2, data = spline_d)
spline_pred <- spline_d %>% 
  mutate(spline_pred = predict(fit, newdata = spline_d)) 

spline_pred
```

```
## # A tibble: 153 x 9
##    Ozone Solar.R  Wind Month   Day  Temp  date_ns_1    date_ns_2 spline_pred
##    <int>   <int> <dbl> <int> <int> <int>      <dbl>        <dbl>       <dbl>
##  1    41     190   7.4     5     1    67 0           0              60.74215
##  2    36     118   8       5     2    72 0.01004389 -0.006695549    61.17035
##  3    12     149  12.6     5     3    74 0.02008509 -0.01338702     61.59844
##  4    18     313  11.5     5     4    62 0.03012090 -0.02007035     62.02629
##  5    NA      NA  14.3     5     5    56 0.04014863 -0.02674146     62.45378
##  6    28      NA  14.9     5     6    66 0.05016559 -0.03339627     62.88078
##  7    23     299   8.6     5     7    65 0.06016907 -0.04003070     63.30719
##  8    19      99  13.8     5     8    59 0.07015639 -0.04664070     63.73289
##  9     8      19  20.1     5     9    61 0.08012484 -0.05322217     64.15774
## 10    NA     194   8.6     5    10    69 0.09007175 -0.05977105     64.58163
## # … with 143 more rows
```
…
---
# Retain 80% of the variance

```r
rec %>% 
  step_pca(all_numeric(), -all_outcomes(), -has_role("id vars"), 
           threshold = .80) %>% 
  prep() %>% 
  juice() %>% 
  select(id, starts_with("PC"), score)
```

```
## # A tibble: 142,187 x 7
##       id      PC1        PC2        PC3        PC4         PC5 score
##    <dbl>    <dbl>      <dbl>      <dbl>      <dbl>       <dbl> <dbl>
##  1     1 3.912190 -3.671239   1.448022   0.2124920  1.659494    2340
##  2     3 4.037360  2.227192  -0.5371773 -1.206262   1.791805    2551
##  3     7 3.901656  1.549484  -0.7008401 -1.075605   2.368715    2417
##  4    10 4.215254  0.6368587 -0.2505359 -1.568579   0.04774955  2620
##  5    13 4.170535  1.386503   0.3242368 -1.772688  -0.3024784   2305
##  6    14 4.218730  1.305871  -0.1019286 -1.216470   2.184753    2346
##  7    16 4.171969  0.7539188 -0.6870029 -1.599537   0.1030893   2395
##  8    17 4.187101  1.684824  -0.3270454 -1.273241   1.919880    2539
##  9    18 4.185652  1.309170  -0.1053255 -1.221911   2.176364    2392
## 10    22 4.158463  0.7469234 -0.6701712 -1.600878   0.1015258   2301
## # … with 142,177 more rows
```

---
### How many PCAs to retain 95% of the variance?

```r
rec %>% 
  step_pca(all_numeric(), -all_outcomes(), -has_role("id vars"), 
           threshold = .95) %>% 
  prep() %>% 
  juice() %>% 
  select(id, starts_with("PC"), score)
```

```
## # A tibble: 142,187 x 15
##       id     PC01       PC02       PC03       PC04        PC05       PC06
##    <dbl>    <dbl>      <dbl>      <dbl>      <dbl>       <dbl>      <dbl>
##  1     1 3.912190 -3.671239   1.448022   0.2124920  1.659494   -0.2968687
##  2     3 4.037360  2.227192  -0.5371773 -1.206262   1.791805   -0.1387631
##  3     7 3.901656  1.549484  -0.7008401 -1.075605   2.368715    0.2807975
##  4    10 4.215254  0.6368587 -0.2505359 -1.568579   0.04774955 -0.3808101
##  5    13 4.170535  1.386503   0.3242368 -1.772688  -0.3024784  -0.6403855
##  6    14 4.218730  1.305871  -0.1019286 -1.216470   2.184753    0.6288601
##  7    16 4.171969  0.7539188 -0.6870029 -1.599537   0.1030893  -0.2148198
##  8    17 4.187101  1.684824  -0.3270454 -1.273241   1.919880    0.3426671
##  9    18 4.185652  1.309170  -0.1053255 -1.221911   2.176364    0.6230486
## 10    22 4.158463  0.7469234 -0.6701712 -1.600878   0.1015258  -0.2201829
## # … with 142,177 more rows, and 8 more variables: PC07 <dbl>, PC08 <dbl>,
## #   PC09 <dbl>, PC10 <dbl>, PC11 <dbl>, PC12 <dbl>, PC13 <dbl>, score <dbl>
```
…
