Decision Trees
…
```
## # A tibble: 0 x 3
## # … with 3 variables: game_session <chr>, installation_id <chr>, n <int>
```

```r
train %>%
  count(game_session, installation_id) %>%
  filter(n > 1)
```

```
## # A tibble: 710 x 3
##    game_session     installation_id     n
##    <chr>            <chr>           <int>
##  1 0132ad94d2c5e234 00e17272           90
##  2 01a1a7d058854c47 00a803f0           19
##  3 01d44d1b32c3da7f 00691033           56
##  4 021462bb2394e97b 00691033          126
##  5 02546c6aa91244cd 00cef781           90
##  6 025afc11b92cfe4c 00fc65b6           62
##  7 02d9c0f8b9d25cf8 00fa8681           24
##  8 031f9b0a80aa39aa 00e536bf           83
##  9 032880a4dca1fb6b 015776b4           14
## 10 0334295374a6db00 00d8a6f2          125
## # … with 700 more rows
```
…
---
# Select only vars in test data

```r
model_set <- k_train %>%
  select(event_count, event_code, game_time, title, world, 
         accuracy_group) %>%
  drop_na(accuracy_group)
model_set
```

```
## # A tibble: 4,840 x 6
##    event_count event_code game_time title                world    accuracy_group
##          <dbl>      <dbl>     <dbl> <chr>                <chr>             <dbl>
##  1           1       2000         0 Mushroom Sorter (As… TREETOP…              3
##  2           2       2025        37 Mushroom Sorter (As… TREETOP…              3
##  3           3       3010        37 Mushroom Sorter (As… TREETOP…              3
##  4           4       3110      3901 Mushroom Sorter (As… TREETOP…              3
##  5           5       3010      3901 Mushroom Sorter (As… TREETOP…              3
##  6           6       4025      6475 Mushroom Sorter (As… TREETOP…              3
##  7           7       3110      6475 Mushroom Sorter (As… TREETOP…              3
##  8           8       3021      6475 Mushroom Sorter (As… TREETOP…              3
##  9           9       3121      7084 Mushroom Sorter (As… TREETOP…              3
## 10          10       4025      8400 Mushroom Sorter (As… TREETOP…              3
## # … with 4,830 more rows
```
…
* Use {caret} to get other metrics.

```r
# minor data prep
model_set2 <- model_set %>% 
  mutate(
    accuracy_group = factor(paste("score", accuracy_group, sep = "_"))
  )
model_set2
```

```
## # A tibble: 4,840 x 6
##    event_count event_code game_time title                world    accuracy_group
##          <dbl>      <dbl>     <dbl> <chr>                <chr>    <fct>         
##  1           1       2000         0 Mushroom Sorter (As… TREETOP… score_3       
##  2           2       2025        37 Mushroom Sorter (As… TREETOP… score_3       
##  3           3       3010        37 Mushroom Sorter (As… TREETOP… score_3       
##  4           4       3110      3901 Mushroom Sorter (As… TREETOP… score_3       
##  5           5       3010      3901 Mushroom Sorter (As… TREETOP… score_3       
##  6           6       4025      6475 Mushroom Sorter (As… TREETOP… score_3       
##  7           7       3110      6475 Mushroom Sorter (As… TREETOP… score_3       
##  8           8       3021      6475 Mushroom Sorter (As… TREETOP… score_3       
##  9           9       3121      7084 Mushroom Sorter (As… TREETOP… score_3       
## 10          10       4025      8400 Mushroom Sorter (As… TREETOP… score_3       
## # … with 4,830 more rows
```
…
